Division,WeightClassKg,Place,Name,Team,BodyweightKg,Best3SquatKg,Best3BenchKg,Best3DeadliftKg,TotalKg,Equipment,Event,Sex
Boys,55.79,1,Miguel Contreras,Robinson,51.89,154.22,77.11,149.69,381.02,Single-ply,SBD,M
Boys,51.71,2,Darius Jackson,Robinson,50.71,122.47,86.18,147.42,356.07,Single-ply,SBD,M
Boys,51.71,3,Jason Ayers,Lampasas,51.53,138.35,72.57,145.15,356.07,Single-ply,SBD,M
Boys,51.71,4,Azahel Herrera,Glen Rose,51.62,113.4,81.65,129.27,324.32,Single-ply,SBD,M
Boys,51.71,5,Sam Morris,College Station,50.62,131.54,68.04,122.47,322.05,Single-ply,SBD,M
Boys,51.71,6,Cameron Griffin,College Station,51.26,129.27,47.63,127.01,303.91,Single-ply,SBD,M
Boys,51.71,7,Cesar Herrera,Glen Rose,50.8,108.86,68.04,113.4,290.3,Single-ply,SBD,M
Boys,51.71,8,Cody Halcom,Glen Rose,49.9,106.59,56.7,122.47,285.76,Single-ply,SBD,M
Boys,51.71,DQ,Jeffery Porter,Alvarado,50.89,138.35,74.84,,,Single-ply,SBD,M
Boys,55.79,DQ,Bryan Martinez,Taylor,51.89,,,,,Single-ply,SBD,M
Boys,59.87,1,Willie Ihlenfeldt,Caldwell,55.97,156.49,99.79,167.83,424.11,Single-ply,SBD,M
Boys,55.79,2,Grady Rhoden,Alvarado,54.88,149.69,72.57,163.29,385.55,Single-ply,SBD,M
Boys,55.79,3,Joseph Herrera,Navasota,53.61,149.69,83.91,136.08,369.68,Single-ply,SBD,M
Boys,55.79,4,Chris Ramirez,Lampasas,55.34,138.35,72.57,154.22,365.14,Single-ply,SBD,M
Boys,55.79,5,Nick Young,Rockdale,55.34,129.27,77.11,154.22,360.61,Single-ply,SBD,M
Boys,55.79,6,Lorenzo Sanchez,Taylor,53.71,136.08,92.99,129.27,358.34,Single-ply,SBD,M
Boys,59.87,7,Jesus Tonche,Waco Connally,55.88,122.47,77.11,151.95,351.53,Single-ply,SBD,M
Boys,55.79,8,Lazaro Garcia,Navasota,55.16,124.74,72.57,136.08,333.39,Single-ply,SBD,M
Boys,55.79,9,Blaine Wootan,College Station,54.88,129.27,65.77,122.47,317.51,Single-ply,SBD,M
Boys,55.79,DQ,Gerardo Barrera,Venus,53.71,129.27,83.91,,,Single-ply,SBD,M
Boys,59.87,1,Victor Aguilar,Caldwell,57.42,249.48,129.27,213.19,591.94,Single-ply,SBD,M
Boys,67.13,2,Darius Mallard,Navasota,60.06,163.29,102.06,206.38,471.74,Single-ply,SBD,M
Boys,59.87,3,Chris Hernandez,Venus,58.69,176.9,90.72,185.97,453.59,Single-ply,SBD,M
Boys,59.87,4,Cory Sauer,Robinson,58.79,156.49,111.13,154.22,421.84,Single-ply,SBD,M
Boys,59.87,5,Billie Manolakis,West,57.97,149.69,102.06,167.83,419.57,Single-ply,SBD,M
Boys,59.87,6,Joseph Marmelejo,Taylor,59.87,156.49,99.79,156.49,412.77,Single-ply,SBD,M
Boys,59.87,7,Kyle Stafford,Navasota,58.6,165.56,83.91,154.22,403.7,Single-ply,SBD,M
Boys,67.13,8,Carlin Linnabery,Glen Rose,59.96,158.76,92.99,149.69,401.43,Single-ply,SBD,M
Boys,59.87,9,Will Meng,Liberty Hill,58.6,151.95,90.72,142.88,385.55,Single-ply,SBD,M
Boys,59.87,DQ,Devin Trevino,Caldwell,59.42,181.44,,,,Single-ply,SBD,M
Boys,67.13,1,Cody Brooks,Robinson,66.5,204.12,129.27,204.12,537.51,Single-ply,SBD,M
Boys,67.13,2,Franteric Powell,Navasota,66.32,197.31,113.4,206.38,517.1,Single-ply,SBD,M
Boys,67.13,3,Josh Beasley,Glen Rose,65.14,185.97,111.13,204.12,501.22,Single-ply,SBD,M
Boys,67.13,4,Lane Fikes,Robinson,66.68,181.44,95.25,219.99,496.68,Single-ply,SBD,M
Boys,67.13,5,Daniel Hernandez,Taylor,66.95,195.04,99.79,188.24,483.08,Single-ply,SBD,M
Boys,67.13,6,Knijin Bell-Williams,Lampasas,66.59,170.1,108.86,181.44,460.4,Single-ply,SBD,M
Boys,67.13,7,Aaron Bucek,Taylor,65.41,176.9,99.79,167.83,444.52,Single-ply,SBD,M
Boys,67.13,8,Philip Carpenter,Waco La Vega,66.68,172.37,79.38,183.7,435.45,Single-ply,SBD,M
Boys,67.13,DQ,David Salazar,Taylor,65.95,,,,,Single-ply,SBD,M
Boys,67.13,DQ,Daniel Iselt,Giddings,66.32,183.7,117.93,,,Single-ply,SBD,M
Boys,74.84,1,Travis Cooke,China Spring,73.21,233.6,158.76,231.33,623.69,Single-ply,SBD,M
Boys,74.84,2,Chase McGhee,Gatesville,71.94,224.53,145.15,219.99,589.67,Single-ply,SBD,M
Boys,74.84,3,Rene Rivas,Venus,72.48,235.87,127.01,226.8,589.67,Single-ply,SBD,M
Boys,74.84,4,Laravis Blunson,Taylor,72.76,233.6,117.93,215.46,566.99,Single-ply,SBD,M
Boys,74.84,5,Hunter Work,Robinson,74.57,210.92,149.69,195.04,555.65,Single-ply,SBD,M
Boys,74.84,6,Dalton Cruz,Rockdale,73.84,192.78,127.01,226.8,546.58,Single-ply,SBD,M
Boys,74.84,7,Raynard Smith,Waco La Vega,72.94,213.19,115.67,210.92,539.77,Single-ply,SBD,M
Boys,74.84,8,Allen Scott,Gatesville,74.3,206.38,122.47,208.65,537.51,Single-ply,SBD,M
Boys,74.84,9,Juan Villa,Robinson,74.03,192.78,127.01,192.78,512.56,Single-ply,SBD,M
Boys,74.84,10,Hunter Redmond,Glen Rose,73.3,183.7,106.59,199.58,489.88,Single-ply,SBD,M
Boys,82.1,1,Martin Balderas,Groesbeck,80.2,242.67,142.88,267.62,653.17,Single-ply,SBD,M
Boys,82.1,2,Thomas Ewing,Giddings,81.37,235.87,122.47,238.14,596.47,Single-ply,SBD,M
Boys,82.1,3,Eddie Morgan #2,Venus,76.75,217.72,115.67,244.94,578.33,Single-ply,SBD,M
Boys,82.1,4,Nick Gonzales,Rockdale,78.56,201.85,156.49,217.72,576.06,Single-ply,SBD,M
Boys,82.1,5,Manuel Murillo,Venus,80.74,217.72,127.01,210.92,555.65,Single-ply,SBD,M
Boys,82.1,6,Everado Araujo,Taylor,77.84,226.8,120.2,206.38,553.38,Single-ply,SBD,M
Boys,82.1,7,Cody Jandreau,Lampasas,80.83,210.92,145.15,192.78,548.85,Single-ply,SBD,M
Boys,82.1,8,Robert Robinson,Mexia,81.92,222.26,108.86,215.46,546.58,Single-ply,SBD,M
Boys,82.1,9,Matt Stephenson,China Spring,81.19,204.12,140.61,199.58,544.31,Single-ply,SBD,M
Boys,82.1,10,Sotero Lara,Giddings,77.47,204.12,127.01,208.65,539.77,Single-ply,SBD,M
Boys,89.81,1,Jamie Czajkowski,Rockdale,87.82,260.82,195.04,204.12,659.98,Single-ply,SBD,M
Boys,89.81,2,Gerald Horne II,Waco La Vega,89.81,244.94,154.22,244.94,644.1,Single-ply,SBD,M
Boys,89.81,3,Desmond Payton,College Station,83.46,269.89,104.33,260.82,635.03,Single-ply,SBD,M
Boys,89.81,4,Howard Horn,Navasota,89.09,226.8,156.49,251.74,635.03,Single-ply,SBD,M
Boys,89.81,5,Joseph Mendoza,Giddings,84.28,249.48,129.27,249.48,628.23,Single-ply,SBD,M
Boys,89.81,6,Desmond Calhoun,Navasota,89.81,213.19,124.74,278.96,616.89,Single-ply,SBD,M
Boys,89.81,7,Andrew Jenkins,Rockdale,87.82,210.92,161.03,235.87,607.81,Single-ply,SBD,M
Boys,89.81,8,Eric Martinez,Venus,89.09,226.8,133.81,238.14,598.74,Single-ply,SBD,M
Boys,89.81,9,Ricky Thompson,Robinson,86.18,213.19,113.4,242.67,569.26,Single-ply,SBD,M
Boys,89.81,10,Darian Robinson,Waco Connally,87.45,206.38,129.27,233.6,569.26,Single-ply,SBD,M
Boys,89.81,11,Zach Koening,China Spring,89.45,224.53,131.54,206.38,562.45,Single-ply,SBD,M
Boys,99.79,1,Chris Robinson #5,Waco Connally,99.25,272.16,149.69,249.48,671.32,Single-ply,SBD,M
Boys,99.79,2,D'Andre Minnitt,Waco La Vega,97.79,258.55,140.61,258.55,657.71,Single-ply,SBD,M
Boys,99.79,3,Dalton Symm,China Spring,96.89,242.67,163.29,217.72,623.69,Single-ply,SBD,M
Boys,99.79,4,Heath Nicholson,Glen Rose,98.43,254.01,117.93,249.48,621.42,Single-ply,SBD,M
Boys,99.79,5,Steven Prater,Venus,96.98,229.06,145.15,242.67,616.89,Single-ply,SBD,M
Boys,99.79,6,Michael Clift,Venus,96.98,242.67,142.88,210.92,596.47,Single-ply,SBD,M
Boys,99.79,7,Jaylen Bocknite,Brownwood,98.61,226.8,127.01,215.46,569.26,Single-ply,SBD,M
Boys,99.79,8,Kegan Bledsoe,Smithville,96.62,244.94,102.06,204.12,551.11,Single-ply,SBD,M
Boys,109.77,DQ,Juan Nunez,Caldwell,99.97,,,,,Single-ply,SBD,M
Boys,99.79,DQ,Shaq Walker,Waco La Vega,97.79,267.62,120.2,,,Single-ply,SBD,M
Boys,109.77,1,Seth White,Alvarado,106.87,281.23,154.22,240.4,675.85,Single-ply,SBD,M
Boys,109.77,2,Erik Zavala,Hillsboro,108.5,249.48,115.67,256.28,621.42,Single-ply,SBD,M
Boys,109.77,3,Matt Gerik,West,106.68,272.16,117.93,226.8,616.89,Single-ply,SBD,M
Boys,109.77,4,Jaylin Minor,Navasota,100.33,235.87,131.54,240.4,607.81,Single-ply,SBD,M
Boys,109.77,5,Will Smith #2,Liberty Hill,103.96,247.21,140.61,210.92,598.74,Single-ply,SBD,M
Boys,124.74,6,Andy Gamez,Lampasas,109.95,238.14,124.74,229.06,591.94,Single-ply,SBD,M
Boys,109.77,7,Cortlund Rice,Mexia,107.05,226.8,133.81,204.12,564.72,Single-ply,SBD,M
Boys,109.77,DQ,David Cockrell,Lampasas,108.95,226.8,,,,Single-ply,SBD,M
Boys,109.77,DQ,Justin Rhyne,Gatesville,104.87,219.99,163.29,,,Single-ply,SBD,M
Boys,109.77,DQ,Ryan de la Garza,Waco Connally,107.5,283.5,,,,Single-ply,SBD,M
Boys,124.74,1,Jerod Thames,Glen Rose,119.02,294.84,192.78,288.03,775.64,Single-ply,SBD,M
Boys,124.74,2,Brian Pullen,China Spring,122.56,290.3,185.97,240.4,716.68,Single-ply,SBD,M
Boys,124.74,3,Matt Diaz,Stephenville,121.29,278.96,181.44,242.67,703.07,Single-ply,SBD,M
Boys,124.74,4,Austin Pratt,Sealy,117.48,254.01,149.69,249.48,653.17,Single-ply,SBD,M
Boys,124.74,5,James Nesom,Burnet,122.38,267.62,151.95,231.33,650.91,Single-ply,SBD,M
Boys,124.74,6,Alfredo Librado,Hillsboro,115.58,256.28,142.88,195.04,594.21,Single-ply,SBD,M
Boys,124.74,7,Garrett Brunson,Lorena,114.12,235.87,138.35,215.46,589.67,Single-ply,SBD,M
Boys,124.74,8,Zack Hudspeth,Gatesville,113.85,235.87,124.74,215.46,576.06,Single-ply,SBD,M
Boys,124.74,9,Roberto Requena,Caldwell,110.86,219.99,124.74,210.92,555.65,Single-ply,SBD,M
Boys,124.74,DQ,Tycomb Wright,Taylor,114.12,240.4,136.08,,,Single-ply,SBD,M
Boys,124.74+,1,Shane Murphy,Robinson,163.29,290.3,213.19,244.94,748.43,Single-ply,SBD,M
Boys,124.74+,2,Jordan Wells,Navasota,125.83,288.03,176.9,276.69,741.62,Single-ply,SBD,M
Boys,124.74+,3,Marcelo Ramirez,Waco La Vega,144.33,269.89,140.61,260.82,671.32,Single-ply,SBD,M
Boys,124.74+,4,Dakota Larson,Venus,128.64,260.82,197.31,197.31,655.44,Single-ply,SBD,M
Boys,124.74+,5,Dwight Holder,Waco La Vega,134.54,274.42,163.29,210.92,648.64,Single-ply,SBD,M
Boys,124.74+,6,Marcus Robinson,Waco Connally,133.63,272.16,140.61,226.8,639.57,Single-ply,SBD,M
Boys,124.74+,7,Kevin Hobbs,Brownwood,133.99,272.16,127.01,226.8,625.96,Single-ply,SBD,M
Boys,124.74+,8,Pedro Salvador,Hillsboro,133.72,233.6,163.29,215.46,612.35,Single-ply,SBD,M
Boys,124.74+,DQ,Edgar Salvador,Hillsboro,153.95,299.37,185.97,,,Single-ply,SBD,M
Boys,124.74+,DQ,Danny Bricker,Giddings,163.29,272.16,158.76,,,Single-ply,SBD,M
