Division,WeightClassKg,Place,Name,Team,BodyweightKg,Best3SquatKg,Best3BenchKg,Best3DeadliftKg,TotalKg,Equipment,Event,Sex,BirthDate
Boys,59.87,1,Carlos Cardoza,Baytown Lee,58.97,102.06,74.84,124.74,301.64,Single-ply,SBD,M,
Boys,59.87,2,Aiden Mongiello,Baytown Sterling,58.97,102.06,74.84,124.74,301.64,Single-ply,SBD,M,
Boys,67.13,1,Andrew Estrada,Baytown Lee,66.68,111.13,72.57,133.81,317.51,Single-ply,SBD,M,
Boys,67.13,2,Xevion Trahan,Baytown Lee,67.13,79.38,65.77,113.4,258.55,Single-ply,SBD,M,
Boys,74.84,1,Mark Lopez,Baytown Goose Creek Memorial,68.49,183.7,111.13,176.9,471.74,Single-ply,SBD,M,
Boys,74.84,2,Daniel James,Baytown Lee,74.84,113.4,83.91,133.81,331.12,Single-ply,SBD,M,
Boys,74.84,3,Edson Gonzalez,Baytown Lee,74.84,99.79,70.31,124.74,294.84,Single-ply,SBD,M,
Boys,82.1,1,Bryce Johnston,Baytown Goose Creek Memorial,78.47,213.19,111.13,233.6,557.92,Single-ply,SBD,M,
Boys,82.1,2,Jeremiah Burrell,Baytown Lee,79.83,133.81,90.72,142.88,367.41,Single-ply,SBD,M,
Boys,82.1,3,DaQorwyn Robertson,Baytown Lee,79.38,136.08,86.18,113.4,335.66,Single-ply,SBD,M,
Boys,82.1,4,Jose Chavez,Baytown Lee,82.1,113.4,68.04,113.4,294.84,Single-ply,SBD,M,
Boys,82.1,5,Nicholas Carmon,Baytown Lee,82.1,70.31,70.31,88.45,229.06,Single-ply,SBD,M,
Boys,82.1,6,Mathew Garza,Baytown Lee,82.1,56.7,40.82,79.38,176.9,Single-ply,SBD,M,
Boys,89.81,1,Jayden Khoury,Baytown Sterling,89.81,151.95,92.99,170.1,415.04,Single-ply,SBD,M,
Boys,89.81,2,Harold Gibson,Baytown Lee,83.91,133.81,92.99,147.42,374.21,Single-ply,SBD,M,
Boys,89.81,3,Hayden Bogle,Baytown Lee,88.45,70.31,52.16,102.06,224.53,Single-ply,SBD,M,
Boys,99.79,1,Oscar Garcia,Baytown Sterling,99.79,151.95,106.59,192.78,451.32,Single-ply,SBD,M,
Boys,99.79,2,Noe Salinas,Baytown Lee,97.07,142.88,86.18,156.49,385.55,Single-ply,SBD,M,
Boys,99.79,3,Christian Bienek,Baytown Lee,99.79,102.06,70.31,147.42,319.78,Single-ply,SBD,M,
Boys,109.77,1,Bryan Roman,Baytown Lee,108.86,124.74,102.06,147.42,374.21,Single-ply,SBD,M,
Boys,109.77,2,Isaac Rendon,Baytown Lee,105.69,117.93,79.38,122.47,319.78,Single-ply,SBD,M,
Boys,109.77,3,JaCorey Kindle,Baytown Lee,109.77,70.31,70.31,106.59,247.21,Single-ply,SBD,M,
Boys,124.74,1,Preston James,Baytown Sterling,122.47,195.04,120.2,204.12,519.36,Single-ply,SBD,M,
Boys,124.74,2,Noah Lister,Baytown Sterling,115.67,161.03,111.13,170.1,442.25,Single-ply,SBD,M,
Boys,124.74,3,Dominc Medina,Baytown Lee,115.67,165.56,102.06,170.1,437.72,Single-ply,SBD,M,
Boys,124.74,4,Carlos Zamarripa,Baytown Lee,124.74,142.88,86.18,145.15,374.21,Single-ply,SBD,M,
Boys,139.71,1,Kevin Henry,Baytown Sterling,126.55,151.95,106.59,172.37,430.91,Single-ply,SBD,M,
Boys,139.71,2,Nikolas Rodriguez,Baytown Lee,130.63,133.81,68.04,127.01,328.85,Single-ply,SBD,M,
Boys,139.71+,1,Omar Nieto,Baytown Lee,146.06,224.53,115.67,215.46,555.65,Single-ply,SBD,M,
Boys,139.71+,2,Jaylen Everett,Baytown Sterling,140.61,195.04,124.74,204.12,523.9,Single-ply,SBD,M,
Boys,139.71+,3,Josh Dodson,Baytown Lee,147.87,113.4,74.84,138.35,326.59,Single-ply,SBD,M,
