Division,WeightClassKg,Place,Name,Team,BodyweightKg,Best3SquatKg,Best3BenchKg,Best3DeadliftKg,TotalKg,Equipment,Event,Sex,BirthDate
Girls,44.23,1,Katrina Le,Beaumont West Brook,43.73,99.79,47.63,111.13,258.55,Single-ply,SBD,F,
Girls,44.23,2,Isabella Gonzalez,Pearland,44.09,83.91,29.48,79.38,192.78,Single-ply,SBD,F,
Girls,44.23,3,Alanis Rivera,Texas City,44.23,43.09,20.41,40.82,104.33,Single-ply,SBD,F,
Girls,44.23,4,Rishawn Barnes,Beaumont West Brook,43.36,58.97,,,58.97,Single-ply,S,F,
Girls,47.85,1,Amanda Barrera,Alvin,46.36,99.79,47.63,,147.42,Single-ply,SB,F,
Girls,47.85,2,Andrea Recendez,Alvin,47.36,95.25,52.16,,147.42,Single-ply,SB,F,
Girls,47.85,3,Valerie Arango,Channelview,46.45,86.18,45.36,,131.54,Single-ply,SB,F,
Girls,47.85,4,Ariana Luna,Channelview,45.63,90.72,34.02,,124.74,Single-ply,SB,F,
Girls,47.85,5,Mirnada Mendoza,Baytown Lee,47.81,79.38,27.22,,106.59,Single-ply,SB,F,
Girls,47.85,6,Evelyn Duke,Pearland Dawson,47.72,52.16,22.68,,74.84,Single-ply,SB,F,
Girls,51.94,1,Crystal Phan,Dickinson,51.17,113.4,63.5,117.93,294.84,Single-ply,SBD,F,
Girls,51.94,2,Gracie Cervantes,Santa Fe,51.35,95.25,45.36,95.25,235.87,Single-ply,SBD,F,
Girls,51.94,3,Keira Rodriguez,Santa Fe,50.17,86.18,47.63,90.72,224.53,Single-ply,SBD,F,
Girls,51.94,4,Isabela Recendez,Alvin,49.53,83.91,40.82,86.18,210.92,Single-ply,SBD,F,
Girls,51.94,5,Rylee Slaughter,Santa Fe,51.35,83.91,40.82,81.65,206.38,Single-ply,SBD,F,
Girls,51.94,6,Stephanie Colmenares,Alvin,50.35,74.84,36.29,86.18,197.31,Single-ply,SBD,F,
Girls,51.94,7,A'Tiana Naville,Port Arthur Memorial,51.8,70.31,31.75,90.72,192.78,Single-ply,SBD,F,
Girls,51.94,8,Aniya Mitchell,Port Arthur Memorial,48.99,61.23,38.56,86.18,185.97,Single-ply,SBD,F,
Girls,51.94,9,Jesslyn Bullard,Cleveland Tarkington,50.62,65.77,43.09,70.31,179.17,Single-ply,SBD,F,
Girls,51.94,10,Madison Cary,Pearland Dawson,50.17,36.29,20.41,52.16,108.86,Single-ply,SBD,F,
Girls,56.02,1,Cameron Bloomfield,Santa Fe,55.43,127.01,56.7,113.4,297.1,Single-ply,SBD,F,
Girls,56.02,2,Taylor Lewis #1,Beaumont West Brook,55.07,99.79,58.97,131.54,290.3,Single-ply,SBD,F,
Girls,56.02,3,Nuhoang Phan,Dickinson,56.02,120.2,49.9,113.4,283.5,Single-ply,SBD,F,
Girls,56.02,4,Araceli Dale,Alvin,55.97,113.4,58.97,102.06,274.42,Single-ply,SBD,F,
Girls,56.02,5,Karli Kalischko,Alvin,53.89,95.25,47.63,99.79,242.67,Single-ply,SBD,F,
Girls,56.02,6,Kamryn Reed,Beaumont West Brook,56.02,88.45,45.36,81.65,215.46,Single-ply,SBD,F,
Girls,56.02,7,Stephanie Lopez,Pearland,56.02,61.23,34.02,95.25,190.51,Single-ply,SBD,F,
Girls,56.02,8,Jaycie Rabon,Santa Fe,55.25,70.31,43.09,74.84,188.24,Single-ply,SBD,F,
Girls,56.02,9,Lilian Hurts,Pearland,56.02,70.31,29.48,86.18,185.97,Single-ply,SBD,F,
Girls,56.02,10,Nova Tull,Santa Fe,55.07,61.23,34.02,88.45,183.7,Single-ply,SBD,F,
Girls,56.02,11,Ti'Kya Mitchell,Beaumont West Brook,53.07,77.11,,97.52,174.63,Single-ply,SD,F,
Girls,56.02,12,Bridges Key,Cleveland Tarkington,52.53,70.31,27.22,70.31,167.83,Single-ply,SBD,F,
Girls,56.02,13,Paris Turner,Galveston Ball,55.34,54.43,27.22,74.84,156.49,Single-ply,SBD,F,
Girls,56.02,14,Katalina Arriolla,Pearland,52.34,45.36,22.68,58.97,127.01,Single-ply,SBD,F,
Girls,56.02,15,Noni Mitchell-Simon,Baytown Lee,52.89,,27.22,81.65,108.86,Single-ply,BD,F,
Girls,56.02,16,Halie Redetzki,Pearland Dawson,55.97,38.56,,56.7,95.25,Single-ply,SD,F,
Girls,60.1,1,Nancy Meza,Alvin,59.06,154.22,68.04,149.69,371.95,Single-ply,SBD,F,
Girls,60.1,2,Dominique de la Rosa #2,Alvin,58.42,108.86,61.23,113.4,283.5,Single-ply,SBD,F,
Girls,60.1,3,Hannah Casas,Alvin,58.88,122.47,56.7,104.33,283.5,Single-ply,SBD,F,
Girls,60.1,4,Karina Recendez,Alvin,57.97,115.67,47.63,115.67,278.96,Single-ply,SBD,F,
Girls,60.1,5,Emily Rubio,Dickinson,60.1,113.4,47.63,108.86,269.89,Single-ply,SBD,F,
Girls,60.1,6,Paris Williams,Beaumont West Brook,58.69,102.06,,138.35,240.4,Single-ply,SD,F,
Girls,60.1,7,Mckenna Mcguire,Santa Fe,59.15,99.79,47.63,92.99,240.4,Single-ply,SBD,F,
Girls,60.1,8,Tyla Jackson,Beaumont United,59.78,77.11,43.09,99.79,219.99,Single-ply,SBD,F,
Girls,60.1,9,Alexis Crich,Galveston Ball,59.78,68.04,36.29,83.91,188.24,Single-ply,SBD,F,
Girls,60.1,10,Bryanna Tovar,Galveston Ball,59.6,61.23,24.95,83.91,170.1,Single-ply,SBD,F,
Girls,67.36,1,Xcaret Santiago-Blanco,Beaumont West Brook,66.95,122.47,72.57,127.01,322.05,Single-ply,SBD,F,
Girls,67.36,2,Camila Recendez,Alvin,63.05,136.08,40.82,122.47,299.37,Single-ply,SBD,F,
Girls,67.36,3,Cameron Baker #1,Cleveland Tarkington,64.86,106.59,56.7,111.13,274.42,Single-ply,SBD,F,
Girls,67.36,4,Abbi Smith,Cleveland Tarkington,66.32,115.67,49.9,108.86,274.42,Single-ply,SBD,F,
Girls,67.36,5,Karissa Betancourt,Santa Fe,66.68,102.06,52.16,113.4,267.62,Single-ply,SBD,F,
Girls,67.36,6,Kaelyn Andrus,Beaumont West Brook,64.41,97.52,56.7,111.13,265.35,Single-ply,SBD,F,
Girls,67.36,7,Anaiah Johnson,Beaumont West Brook,63.32,97.52,61.23,97.52,256.28,Single-ply,SBD,F,
Girls,67.36,8,Vashed Thompson,Galveston Ball,61.05,88.45,40.82,88.45,217.72,Single-ply,SBD,F,
Girls,67.36,9,Khalia Dankins,Port Arthur Memorial,63.5,72.57,40.82,83.91,197.31,Single-ply,SBD,F,
Girls,67.36,10,Diana Moncada,Baytown Lee,64.14,74.84,24.95,92.99,192.78,Single-ply,SBD,F,
Girls,67.36,11,Jayleen Alvarez,Baytown Lee,62.32,68.04,27.22,79.38,174.63,Single-ply,SBD,F,
Girls,67.36,12,Yarani Machado,Pearland Dawson,61.78,56.7,,79.38,136.08,Single-ply,SD,F,
Girls,75.07,1,Karina Macias,Alvin,74.93,190.51,61.23,170.1,421.84,Single-ply,SBD,F,
Girls,75.07,2,Alyssa Redeaux,Beaumont West Brook,74.3,131.54,77.11,158.76,367.41,Single-ply,SBD,F,
Girls,75.07,3,Raeann Hernandez,Alvin,73.48,113.4,54.43,140.61,308.44,Single-ply,SBD,F,
Girls,75.07,4,Samantha Donaldson,Pearland,68.22,120.2,68.04,117.93,306.17,Single-ply,SBD,F,
Girls,75.07,5,Krissy Prier,Pearland Dawson,73.39,122.47,56.7,122.47,301.64,Single-ply,SBD,F,
Girls,75.07,6,Kayla Lawrence,Beaumont West Brook,72.48,108.86,52.16,120.2,281.23,Single-ply,SBD,F,
Girls,75.07,7,Tia Anderson,Beaumont West Brook,70.4,92.99,52.16,124.74,269.89,Single-ply,SBD,F,
Girls,75.07,8,Alex Cravey,Santa Fe,69.4,106.59,49.9,95.25,251.74,Single-ply,SBD,F,
Girls,75.07,9,Kadence Garlington,Beaumont United,75.02,92.99,45.36,113.4,251.74,Single-ply,SBD,F,
Girls,75.07,10,Abigail Westhause,Galveston Ball,69.22,86.18,43.09,117.93,247.21,Single-ply,SBD,F,
Girls,75.07,11,Anayia Darkins,Beaumont United,72.76,70.31,52.16,124.74,247.21,Single-ply,SBD,F,
Girls,75.07,12,Bailee Sobnosky,Santa Fe,72.85,99.79,43.09,92.99,235.87,Single-ply,SBD,F,
Girls,75.07,13,Dasmine Jefferson,Beaumont United,69.58,77.11,40.82,113.4,231.33,Single-ply,SBD,F,
Girls,75.07,14,Morgan Singleton,Pearland,68.22,83.91,45.36,90.72,219.99,Single-ply,SBD,F,
Girls,75.07,15,Keyona Kitchen,Dickinson,73.66,86.18,43.09,90.72,219.99,Single-ply,SBD,F,
Girls,75.07,16,Angelina Ochoa,Alvin,67.86,83.91,40.82,92.99,217.72,Single-ply,SBD,F,
Girls,75.07,17,Christabel Bass,Alvin,73.66,83.91,36.29,83.91,204.12,Single-ply,SBD,F,
Girls,75.07,18,Amelia Coutorie,Pearland Dawson,73.75,65.77,31.75,88.45,185.97,Single-ply,SBD,F,
Girls,75.07,19,Breanna Fuselier,Dickinson,67.59,45.36,27.22,79.38,151.95,Single-ply,SBD,F,
Girls,82.33,1,Katera Perkins,Beaumont West Brook,80.29,158.76,68.04,142.88,369.68,Single-ply,SBD,F,
Girls,82.33,2,Mariah Hayes,Beaumont United,80.65,108.86,45.36,115.67,269.89,Single-ply,SBD,F,
Girls,82.33,3,Annika Willett,Cleveland Tarkington,76.48,97.52,58.97,108.86,265.35,Single-ply,SBD,F,
Girls,82.33,4,Haley Bingham,Dickinson,79.92,108.86,47.63,108.86,265.35,Single-ply,SBD,F,
Girls,82.33,5,Kimberly Benda,Alvin,79.2,102.06,40.82,108.86,251.74,Single-ply,SBD,F,
Girls,82.33,6,Brianna Rodriguez,Dickinson,80.74,83.91,38.56,92.99,215.46,Single-ply,SBD,F,
Girls,82.33,7,Nicole Carley,Cleveland Tarkington,81.37,111.13,,97.52,208.65,Single-ply,SD,F,
Girls,90.04,1,Alyna Mickens,Beaumont West Brook,89.99,147.42,63.5,133.81,344.73,Single-ply,SBD,F,
Girls,90.04,2,Stevie Goodman,Alvin,84.55,133.81,58.97,142.88,335.66,Single-ply,SBD,F,
Girls,90.04,3,Shamara George,Beaumont United,84.55,120.2,65.77,136.08,322.05,Single-ply,SBD,F,
Girls,90.04,4,Briyonna Jacquette,Beaumont West Brook,83.64,117.93,58.97,131.54,308.44,Single-ply,SBD,F,
Girls,90.04,5,Sequoria Raymond,Beaumont West Brook,90.04,124.74,56.7,127.01,308.44,Single-ply,SBD,F,
Girls,90.04,6,Trinity Lee,Pearland,84.01,106.59,58.97,136.08,301.64,Single-ply,SBD,F,
Girls,90.04,7,Siara Benton,Beaumont West Brook,88.18,122.47,61.23,113.4,297.1,Single-ply,SBD,F,
Girls,90.04,8,Iran Inzunza,Beaumont West Brook,85.28,120.2,65.77,108.86,294.84,Single-ply,SBD,F,
Girls,90.04,9,Elizabeth Hidalgo,Alvin,84.73,102.06,47.63,115.67,265.35,Single-ply,SBD,F,
Girls,90.04,10,Gabby Magenheim,Pearland Dawson,82.64,99.79,49.9,95.25,244.94,Single-ply,SBD,F,
Girls,90.04,11,Zephaniah Martin,Pearland Dawson,83.46,79.38,45.36,97.52,222.26,Single-ply,SBD,F,
Girls,90.04,12,Thailynn White,Port Arthur Memorial,83.1,83.91,34.02,95.25,213.19,Single-ply,SBD,F,
Girls,90.04,13,Kamile Farrakhan,Pearland Dawson,86,74.84,36.29,97.52,208.65,Single-ply,SBD,F,
Girls,90.04,14,Demari Cole,Pearland Dawson,89.27,70.31,34.02,72.57,176.9,Single-ply,SBD,F,
Girls,100.02,1,Hope Anderson,Cleveland Tarkington,92.35,158.76,74.84,138.35,371.95,Single-ply,SBD,F,
Girls,100.02,2,Sarah Green #2,Alvin,91.81,129.27,65.77,149.69,344.73,Single-ply,SBD,F,
Girls,100.02,3,Kaleigha Washington,Beaumont West Brook,93.26,124.74,61.23,138.35,324.32,Single-ply,SBD,F,
Girls,100.02,4,Kylee Albritton,Pearland,99.7,129.27,56.7,131.54,317.51,Single-ply,SBD,F,
Girls,100.02,5,Jurnee Gooden,Beaumont West Brook,96.62,108.86,56.7,131.54,297.1,Single-ply,SBD,F,
Girls,100.02,6,Jewel Jones,Cleveland Tarkington,96.62,106.59,58.97,117.93,283.5,Single-ply,SBD,F,
Girls,100.02,7,Katelyn Hayes,Pearland Dawson,99.52,97.52,49.9,111.13,258.55,Single-ply,SBD,F,
Girls,100.02,8,Savannah Haas,Texas City,99.06,102.06,52.16,95.25,249.48,Single-ply,SBD,F,
Girls,100.02,9,Zhana-Laya Dewey,Port Arthur Memorial,91.44,95.25,49.9,90.72,235.87,Single-ply,SBD,F,
Girls,100.02,10,Armani Thompson,Beaumont United,91.72,83.91,45.36,92.99,222.26,Single-ply,SBD,F,
Girls,100.02,11,Jennifer De Leon #2,Alvin,93.53,102.06,45.36,,147.42,Single-ply,SB,F,
Girls,117.71,1,Trinity Ruiz,Alvin,104.78,183.7,90.72,156.49,430.91,Single-ply,SBD,F,
Girls,117.71,2,Cydney Griffin,Beaumont West Brook,104.05,181.44,97.52,142.88,421.84,Single-ply,SBD,F,
Girls,117.71,3,Eliana Hernandez,Alvin,109.77,120.2,61.23,140.61,322.05,Single-ply,SBD,F,
Girls,117.71,4,Olivier Payton,La Marque,100.88,115.67,56.7,136.08,308.44,Single-ply,SBD,F,
Girls,117.71,5,Anina Miller,Beaumont West Brook,102.06,106.59,70.31,122.47,299.37,Single-ply,SBD,F,
Girls,117.71,6,Chloe Kirchner,Cleveland Tarkington,104.87,97.52,58.97,111.13,267.62,Single-ply,SBD,F,
Girls,117.71,7,Kirah Williams,Beaumont United,114.12,90.72,47.63,115.67,254.01,Single-ply,SBD,F,
Girls,117.71,8,Keionna West,Beaumont United,106.14,81.65,45.36,106.59,233.6,Single-ply,SBD,F,
Girls,117.71,9,Aleicya Sells,Beaumont West Brook,113.22,86.18,49.9,92.99,229.06,Single-ply,SBD,F,
Girls,117.71+,1,Belen Almader,Alvin,131.18,215.46,83.91,142.88,442.25,Single-ply,SBD,F,
Girls,117.71+,2,Laci Ruiz,Alvin,132.45,124.74,49.9,129.27,303.91,Single-ply,SBD,F,
Girls,117.71+,3,Deaisha Boone,Dickinson,124.74,74.84,43.09,104.33,222.26,Single-ply,SBD,F,
Girls,117.71+,4,Kaydence Martin,Beaumont West Brook,166.29,45.36,45.36,106.59,197.31,Single-ply,SBD,F,
