Place,Name,BirthYear,Country,BodyweightKg,Squat1Kg,Squat2Kg,Squat3Kg,Best3SquatKg,Bench1Kg,Bench2Kg,Bench3Kg,Best3BenchKg,Deadlift1Kg,Deadlift2Kg,Deadlift3Kg,Best3DeadliftKg,TotalKg,WeightClassKg,Division,Event,Sex,Equipment
1,Yauheni Savashynski,1998,Belarus,51.4,120,132.5,-137.5,132.5,72.5,75,-77.5,75,110,120,130,130,337.5,53,Sub-Juniors,SBD,M,Single-ply
1,Maksim Melikov,1994,Russia,59,210,220,230,230,102.5,110,115,115,180,190,195,195,540,59,Sub-Juniors,SBD,M,Single-ply
2,Efim Tcebenko,1995,Russia,59,170,180,185,185,110,115,-117.5,115,180,187.5,192.5,192.5,492.5,59,Sub-Juniors,SBD,M,Single-ply
3,Ihar Yuzapchuk,1996,Belarus,58.4,145,160,-167.5,160,-110,110,-112.5,110,155,167.5,185,185,455,59,Sub-Juniors,SBD,M,Single-ply
4,Matti Christensen,1995,Denmark,58.4,140,-150,150,150,140,145,-150.5,145,140,150,155,155,450,59,Sub-Juniors,SBD,M,Single-ply
5,Artur Białek,1995,Poland,58.6,125,135,-140,135,110,115,117.5,117.5,140,150,155,155,407.5,59,Sub-Juniors,SBD,M,Single-ply
1,Elchin Muradov,1994,Russia,65.4,200,215,-225,215,140,147.5,152.5,152.5,225,230,250,250,617.5,66,Sub-Juniors,SBD,M,Single-ply
2,Daniel Nguyen #3,1994,France,64.6,-225,-230,240,240,-150,150,-157.5,150,205,215,225,225,615,66,Sub-Juniors,SBD,M,Single-ply
3,Tatu Sokka,1996,Finland,65.8,175,185,190,190,120,130,132.5,132.5,182.5,190,205,205,527.5,66,Sub-Juniors,SBD,M,Single-ply
4,Matias Viiperi,1994,Finland,66,182.5,192.5,200,200,120,-125,-125,120,-182.5,182.5,-210,182.5,502.5,66,Sub-Juniors,SBD,M,Single-ply
5,Laurentiu Avram,1995,Romania,64.8,155,-165,165,165,105,-112.5,-112.5,105,200,-205,-207.5,200,470,66,Sub-Juniors,SBD,M,Single-ply
6,Valiantsin Piankouski,1996,Belarus,64.6,-180,-185,185,185,100,-105,-105,100,165,177.5,-200,177.5,462.5,66,Sub-Juniors,SBD,M,Single-ply
1,Artemy Kudin,1994,Russia,73.6,230,242.5,-247.5,242.5,150,160,165,165,240,250,-255,250,657.5,74,Sub-Juniors,SBD,M,Single-ply
2,Geoffrey Mignolet,1994,Belgium,73.2,210,222.5,227.5,227.5,135,145,150,150,220,230,240,240,617.5,74,Sub-Juniors,SBD,M,Single-ply
3,Jonne Ylisirniö,1994,Finland,73.8,230,-237.5,-237.5,230,135,-140,-140,135,-190,190,205,205,570,74,Sub-Juniors,SBD,M,Single-ply
DQ,Mickel Dahl Hansen,1996,Denmark,73.8,162.5,172.5,177.5,177.5,-110,-110,-110,,155,-170,192.5,192.5,,74,Sub-Juniors,SBD,M,Single-ply
1,Lasse B. Ahrendsen,1994,Denmark,82.4,250,-260,260,260,150,157.5,162.5,162.5,250,257.5,-262.5,257.5,680,83,Sub-Juniors,SBD,M,Single-ply
2,Dmitry Ovsyanskiy,1994,Russia,80.4,-265,265,-280,265,155,-160,160,160,230,-247.5,247.5,247.5,672.5,83,Sub-Juniors,SBD,M,Single-ply
3,Patryk Bolek,1994,Denmark,82,235,250,255,255,145,-150,150,150,200,220,-230,220,625,83,Sub-Juniors,SBD,M,Single-ply
4,Julian Schnurr,1994,Germany,82.6,220,232.5,-237.5,232.5,172.5,177.5,-182.5,177.5,205,212.5,-217.5,212.5,622.5,83,Sub-Juniors,SBD,M,Single-ply
5,Marcin Budek,1994,Poland,82.6,230,240,-245,240,115,122.5,-125,122.5,225,240,250,250,612.5,83,Sub-Juniors,SBD,M,Single-ply
6,Nikita Golev,1994,Russia,82.8,-245,245,-255,245,130,135,-140,135,225,227.5,-232.5,227.5,607.5,83,Sub-Juniors,SBD,M,Single-ply
7,Alexandru Cazacu,1997,Romania,80,180,-190,-192.5,180,100,-105,105,105,150,160,-170,160,445,83,Sub-Juniors,SBD,M,Single-ply
1,Kamil Sypka,1994,Poland,89.4,-255,255,-265,255,-202.5,202.5,-210,202.5,230,250,260,260,717.5,93,Sub-Juniors,SBD,M,Single-ply
2,Alexey Efimik,1995,Russia,88,270,285,295,295,150,-160,160,160,240,250,260,260,715,93,Sub-Juniors,SBD,M,Single-ply
3,Nicolai Nielsen,1995,Denmark,89.6,210,-220,220,220,125,132.5,-140,132.5,210,225,-242.5,225,577.5,93,Sub-Juniors,SBD,M,Single-ply
1,Yury Pellya,1994,Finland,104.6,290,-305,-305,290,175,182.5,,182.5,240,260,280,280,752.5,105,Sub-Juniors,SBD,M,Single-ply
2,Tomáš Turek,1994,Czechia,93.8,250,270,-287.5,270,130,140,-142.5,140,202.5,215,227.5,227.5,637.5,105,Sub-Juniors,SBD,M,Single-ply
3,Szymon Moryson,1994,Poland,94,210,230,240,240,145,155,160,160,200,215,-227.5,215,615,105,Sub-Juniors,SBD,M,Single-ply
1,Hubert Dudziak,1995,Poland,115.8,270,285,295,295,150,160,165,165,225,240,245,245,705,120,Sub-Juniors,SBD,M,Single-ply
2,Pavel Uher,1994,Czechia,108.8,265,-280,-280,265,140,147.5,152.5,152.5,260,-282.5,-287.5,260,677.5,120,Sub-Juniors,SBD,M,Single-ply
3,Sergey Iazykov,1995,Russia,115,-230,230,-250,230,155,165,170,170,220,235,245,245,645,120,Sub-Juniors,SBD,M,Single-ply
4,Petrus Nurminen,1994,Finland,116,200,-215,220,220,130,140,-150,140,195,205,-207.5,205,565,120,Sub-Juniors,SBD,M,Single-ply
1,Celine Grillet,1991,France,46.8,132.5,137.5,142.5,142.5,72.5,77.5,82.5,82.5,122.5,130,-137.5,130,355,47,Juniors,SBD,F,Single-ply
2,Kristina Moskaleva,1991,Russia,46.6,-132.5,137.5,-145,137.5,62.5,67.5,70,70,120,125,132.5,132.5,340,47,Juniors,SBD,F,Single-ply
3,Alexandra Churkina,1992,Russia,46.8,135,140,-145,140,70,72.5,75,75,110,117.5,125,125,340,47,Juniors,SBD,F,Single-ply
4,Ewa Mioduszewska,1989,Poland,46.6,120,130,137.5,137.5,50,55,-57.5,55,130,140,-147.5,140,332.5,47,Juniors,SBD,F,Single-ply
1,Ekaterina Osipova,1991,Russia,51.8,160,170,175,175,90,97.5,105,105,150,160,165,165,445,52,Juniors,SBD,F,Single-ply
2,Mareen Schmeelke,1991,Germany,51.8,145,155,-162.5,155,72.5,77.5,80,80,130,137.5,-145,137.5,372.5,52,Juniors,SBD,F,Single-ply
3,Anja Schreiner,1993,Germany,51,120,-130,135,135,82.5,90,-92.5,90,115,122.5,-125,122.5,347.5,52,Juniors,SBD,F,Single-ply
1,Victoria Karlysheva,1993,Russia,55.2,175,185,-190,185,82.5,90,92.5,92.5,150,160,167.5,167.5,445,57,Juniors,SBD,F,Single-ply
2,Amandine Grondin,1992,France,56.6,145,150,155,155,90,95,97.5,97.5,135,-140,140,140,392.5,57,Juniors,SBD,F,Single-ply
3,Magdalena Błach,1989,Poland,56.8,150,-155,-155,150,77.5,-80,80,80,130,135,137.5,137.5,367.5,57,Juniors,SBD,F,Single-ply
4,Marina Kainleinsberger,1990,Austria,55.6,-142.5,142.5,-147.5,142.5,85,-92.5,92.5,92.5,125,130,-135,130,365,57,Juniors,SBD,F,Single-ply
5,Olimpia Felińska,1992,Poland,55.4,135,145,150,150,70,75,-77.5,75,125,135,-142.5,135,360,57,Juniors,SBD,F,Single-ply
1,Olga Adamovich,1991,Russia,60.4,175,185,192.5,192.5,97.5,105,-110,105,165,175,180,180,477.5,63,Juniors,SBD,F,Single-ply
2,Anna-Maria Gahr,1993,Germany,62.4,112.5,122.5,-132.5,122.5,72.5,80,-85,80,110,117.5,-122.5,117.5,320,63,Juniors,SBD,F,Single-ply
3,Anna Zubko,1992,Poland,61,110,-120,-120,110,50,52.5,-55,52.5,-115,115,-120,115,277.5,63,Juniors,SBD,F,Single-ply
4,Andra Ghinet,1993,Romania,57.2,-85,-90,90,90,45,50,-60,50,90,-110,-120,90,230,63,Juniors,SBD,F,Single-ply
DQ,Kateřina Hýblerová,1991,Czechia,59.4,-110,-120,-120,,57.5,60,65,65,105,112.5,-117.5,112.5,,63,Juniors,SBD,F,Single-ply
1,Maria Gulidova,1989,Russia,69.4,200,215,-222.5,215,130,135,140,140,170,177.5,-182.5,177.5,532.5,72,Juniors,SBD,F,Single-ply
2,Marte Elverum,1990,Norway,70.8,197.5,207.5,212.5,212.5,-100,100,105,105,190,-197.5,-197.5,190,507.5,72,Juniors,SBD,F,Single-ply
3,Elina Rönnqvist,1992,Sweden,71.6,180,192.5,197.5,197.5,100,107.5,110,110,155,162.5,167.5,167.5,475,72,Juniors,SBD,F,Single-ply
4,Martina Koutňáková,1990,Czechia,71.4,165,172.5,-180,172.5,100,107.5,110,110,160,167.5,-172.5,167.5,450,72,Juniors,SBD,F,Single-ply
5,Guðrún Gróa Þorsteinsdóttir,1989,Iceland,70.6,155,-162.5,-162.5,155,105,110,112.5,112.5,160,165,-167.5,165,432.5,72,Juniors,SBD,F,Single-ply
6,Sara Nyholm,1992,Denmark,68.8,135,145,-150,145,60,,,60,130,137.5,-140,137.5,342.5,72,Juniors,SBD,F,Single-ply
1,Ekaterina Bratus,1991,Russia,83.2,205,215,220,220,120,125,-127.5,125,170,180,-190,180,525,84,Juniors,SBD,F,Single-ply
2,Inger-Johanne Ruud,1991,Norway,81,-205,205,210,210,120,-125,-125,120,160,170,175,175,505,84,Juniors,SBD,F,Single-ply
3,Agata Sedziak,1989,Poland,73.6,145,155,-160,155,85,95,-100,95,130,140,-150,140,390,84,Juniors,SBD,F,Single-ply
1,Magdalena Bialek,1991,Poland,84.8,205,220,230,230,105,115,117.5,117.5,195,215,-220,215,562.5,84+,Juniors,SBD,F,Single-ply
2,Alexandra Tichy,1990,Austria,87,175,185,-190,185,110,115,117.5,117.5,165,175,-180,175,477.5,84+,Juniors,SBD,F,Single-ply
3,Kamila Kasperska,1992,Poland,84.8,-170,170,185,185,80,-87.5,-87.5,80,157.5,165,170,170,435,84+,Juniors,SBD,F,Single-ply
4,Elena Tareecheva,1993,Russia,116.4,170,177.5,182.5,182.5,85,92.5,-95,92.5,147.5,-155,-157.5,147.5,422.5,84+,Juniors,SBD,F,Single-ply
1,Veronika Oglezneva,1997,Russia,43,122.5,132.5,137.5,137.5,52.5,-57.5,-60,52.5,120,131,-135,131,321,43,Sub-Juniors,SBD,F,Single-ply
1,Andréa Durand,1994,France,46.8,125,132.5,137.5,137.5,-65,65,,65,120,130,-137.5,130,332.5,47,Sub-Juniors,SBD,F,Single-ply
2,Ekaterina Purtova,1997,Russia,46.8,112.5,125,130,130,55,-60,-60,55,115,-125,125,125,310,47,Sub-Juniors,SBD,F,Single-ply
1,Tatiana Rikhelgof,1997,Russia,49.6,-110,110,-120,110,62.5,67.5,70,70,100,110,120,120,300,52,Sub-Juniors,SBD,F,Single-ply
2,Anamaria Motoca,1995,Romania,51.2,80,82.5,-90,82.5,45,-55,-67.5,45,85,-100,-112.5,85,212.5,52,Sub-Juniors,SBD,F,Single-ply
1,Viktoria Savkina,1994,Russia,53.6,145,150,-155,150,45,65,70,70,135,145,152.5,152.5,372.5,57,Sub-Juniors,SBD,F,Single-ply
2,Yvonne Dengscherz,1995,Germany,56.6,90,97.5,-102.5,97.5,55,60,62.5,62.5,-115,115,-120,115,275,57,Sub-Juniors,SBD,F,Single-ply
3,Emilia Bulai,1994,Romania,55,-90,90,105,105,50,65,-72.5,65,90,-115,-117.5,90,260,57,Sub-Juniors,SBD,F,Single-ply
1,Frida Leandersson,1995,Sweden,62.4,140,-147.5,-147.5,140,70,75,-80,75,140,145,-147.5,145,360,63,Sub-Juniors,SBD,F,Single-ply
2,Yagshigul Sultaniyazova,1994,Russia,59.8,-120,120,-130,120,65,70,-75,70,125,130,135,135,325,63,Sub-Juniors,SBD,F,Single-ply
3,Ielyzaveta Solopan,1997,Ukraine,61.6,110,122.5,-132.5,122.5,45,50,55,55,115,127.5,137.5,137.5,315,63,Sub-Juniors,SBD,F,Single-ply
1,Anna Slusarczyk,1995,Poland,70.6,130,140,147.5,147.5,60,65,70,70,115,125,130,130,347.5,72,Sub-Juniors,SBD,F,Single-ply
2,Ekaterina Trofimova,1994,Russia,66.4,100,110,120,120,45,50,55,55,100,115,125,125,300,72,Sub-Juniors,SBD,F,Single-ply
1,Nadège Dechamps,1996,Belgium,77.2,-152.5,155,162.5,162.5,97.5,107.5,112.5,112.5,152.5,162.5,170,170,445,84,Sub-Juniors,SBD,F,Single-ply
2,Mirella Laukkanen,1995,Finland,81,125,132.5,137.5,137.5,62.5,67.5,70,70,117.5,122.5,127.5,127.5,335,84,Sub-Juniors,SBD,F,Single-ply
3,Andreea Andrei,1996,Romania,72.2,80,97.5,-110,97.5,-42.5,-42.5,42.5,42.5,90,110,-127.5,110,250,84,Sub-Juniors,SBD,F,Single-ply
1,Bianca Pirva Carmen,1995,Romania,105,-140,140,180,180,65,80,-85,80,140,-160,-170,140,400,84+,Sub-Juniors,SBD,F,Single-ply
1,Adam Slabinski,1992,Poland,51,90,-105,105,105,70,80,-85,80,135,150,-157.5,150,335,53,Juniors,SBD,M,Single-ply
1,Leonid Kuznetsov,1993,Russia,58.8,230,-237.5,237.5,237.5,-127.5,127.5,132.5,132.5,215,222.5,-225,222.5,592.5,59,Juniors,SBD,M,Single-ply
2,Oleg Yasenetskiy,1991,Ukraine,57.4,-215,220,-227.5,220,135,142.5,-145,142.5,195,-222.5,,195,557.5,59,Juniors,SBD,M,Single-ply
1,Vichet Duong,1993,France,65.6,265,280,292.5,292.5,145,150,157.5,157.5,250,260,-262.5,260,710,66,Juniors,SBD,M,Single-ply
2,Alexander Shipshin,1990,Russia,65.8,240,255,265,265,160,165,170,170,220,230,240,240,675,66,Juniors,SBD,M,Single-ply
3,Roman Bakhshiev,1993,Russia,66,245,255,-265,255,160,170,175,175,210,-220,220,220,650,66,Juniors,SBD,M,Single-ply
4,Wojciech Wojtkowski,1989,Poland,66,215,225,-235,225,130,137.5,-142.5,137.5,190,-212.5,-212.5,190,552.5,66,Juniors,SBD,M,Single-ply
5,Max Hampel,1993,Germany,64,175,185,190,190,110,117.5,122.5,122.5,180,192.5,-210,192.5,505,66,Juniors,SBD,M,Single-ply
1,Ilya Kuznetsov,1992,Russia,73.8,-300,300,310,310,177.5,182.5,187.5,187.5,240,250,255,255,752.5,74,Juniors,SBD,M,Single-ply
2,Adrien Poinson,1991,France,72,250,260,-265,260,215,225,230.5,230.5,-245,245,250,250,740.5,74,Juniors,SBD,M,Single-ply
3,Andrey Danilov,1990,Russia,73.8,290,302.5,-307.5,302.5,162.5,165,167.5,167.5,260,270,-272.5,270,740,74,Juniors,SBD,M,Single-ply
4,Jacob Beermann,1989,Denmark,73.2,265,275,-280,275,155,160,-162.5,160,272.5,282.5,-290,282.5,717.5,74,Juniors,SBD,M,Single-ply
5,Dimitri Didon,1991,France,73.2,270,280,290,290,145,150,155,155,265,-280,-280,265,710,74,Juniors,SBD,M,Single-ply
6,Lukasz Barczak,1990,Poland,73.2,250,260,265,265,155,160,165,165,235,255,-260,255,685,74,Juniors,SBD,M,Single-ply
7,Patrick Fuderer,1991,Austria,71.6,220,-230,-230,220,150,-157.5,-157.5,150,195,205,-215,205,575,74,Juniors,SBD,M,Single-ply
8,Marius Milla,1993,Germany,71.4,200,-205,205,205,125,-135,-135,125,200,215,-225,215,545,74,Juniors,SBD,M,Single-ply
1,Alexander Huber,1990,Austria,82.8,315,322.5,-327.5,322.5,200,207.5,212.5,212.5,250,265,275,275,810,83,Juniors,SBD,M,Single-ply
2,Tanguy Penasse,1990,Belgium,82.4,290,-310,310,310,175,185,195,195,250,260,267.5,267.5,772.5,83,Juniors,SBD,M,Single-ply
3,Vincent Curth,1991,Germany,79.6,275,285,-287.5,285,-172.5,-177.5,177.5,177.5,240,-247.5,247.5,247.5,710,83,Juniors,SBD,M,Single-ply
4,Lukáš Tkadlec,1989,Czechia,82.2,270,-282.5,-287.5,270,190,197.5,200,200,240,-247.5,-250,240,710,83,Juniors,SBD,M,Single-ply
5,Marcin Kapała,1992,Poland,82.2,270,-280,-285,270,140,150,157.5,157.5,220,240,250,250,677.5,83,Juniors,SBD,M,Single-ply
6,Timmy Waxfældt,1989,Denmark,80.6,215,227.5,240,240,180,-185,185,185,235,250,-265,250,675,83,Juniors,SBD,M,Single-ply
7,Sava Marcov Darcov,1990,Romania,82.2,250,-265,-265,250,165,-177.5,-182.5,165,245,260,-265,260,675,83,Juniors,SBD,M,Single-ply
8,Michel Piron,1993,Luxembourg,81.6,232.5,-237.5,-237.5,232.5,140,-145,145,145,215,225,230,230,607.5,83,Juniors,SBD,M,Single-ply
DQ,Henrik Fransson,1991,Sweden,82.4,240,250,-260,250,-197.5,-197.5,-197.5,,260,-277.5,277.5,277.5,,83,Juniors,SBD,M,Single-ply
1,Erik Gunhamn,1992,Sweden,92.4,300,-315,315,315,170,175,177.5,177.5,310,330,352.5,352.5,845,93,Juniors,SBD,M,Single-ply
2,Artur Dimmel,1991,Germany,91,277.5,-285,-285,277.5,180,187.5,-192.5,187.5,285,295,-315,295,760,93,Juniors,SBD,M,Single-ply
3,Filip Czelusniak,1989,Poland,91.8,-280,280,290,290,175,182.5,185,185,240,255,270,270,745,93,Juniors,SBD,M,Single-ply
4,Tadeáš Kronovetr,1993,Czechia,86.6,250,270,-285,270,-150,150,165,165,250,262.5,-275,262.5,697.5,93,Juniors,SBD,M,Single-ply
5,Joost de Groot,1990,Netherlands,92,255,265,272.5,272.5,-150,155,-160,155,252.5,265,-272.5,265,692.5,93,Juniors,SBD,M,Single-ply
6,Rene S. Vestergaard,1991,Denmark,92.4,240,-252.5,252.5,252.5,160,-170,-170,160,250,-262.5,-262.5,250,662.5,93,Juniors,SBD,M,Single-ply
7,Jan Moravec,1993,Czechia,89,225,-240,240,240,135,-142.5,-142.5,135,225,245,252.5,252.5,627.5,93,Juniors,SBD,M,Single-ply
DQ,Jussi Ylimys,1989,Finland,92.8,275,290,-305,290,-172.5,-172.5,-172.5,,275,287.5,-312.5,287.5,,93,Juniors,SBD,M,Single-ply
1,Alex-Edward Raus,1992,Estonia,104,370,-385,385,385,240,250,255,255,325,-342.5,-342.5,325,965,105,Juniors,SBD,M,Single-ply
2,Kristoffer Skadsem Eikeland,1989,Norway,103.8,310,325,330,330,237.5,245,-250,245,315,325,332.5,332.5,907.5,105,Juniors,SBD,M,Single-ply
3,Joachim Lindseth,1992,Norway,102.8,330,342.5,-350,342.5,212.5,217.5,-225,217.5,312.5,320,-327.5,320,880,105,Juniors,SBD,M,Single-ply
4,Maxim Titov,1989,Russia,104.4,335,360,-372.5,360,195,205,-212.5,205,295,315,-327.5,315,880,105,Juniors,SBD,M,Single-ply
5,Casper Futtrup,1989,Denmark,104.4,300,312.5,-320,312.5,235,-240,240,240,275,285,300,300,852.5,105,Juniors,SBD,M,Single-ply
6,Marcus Böttger,1990,Germany,103.4,322.5,-332.5,332.5,332.5,-210,210,217.5,217.5,270,285,300,300,850,105,Juniors,SBD,M,Single-ply
7,Filip Sobotka,1993,Czechia,101.6,300,320,-335,320,-190,190,200,200,260,275,-280,275,795,105,Juniors,SBD,M,Single-ply
8,Viktor Samúelsson,1993,Iceland,102.4,265,280,295,295,-190,190,200,200,270,285,300,300,795,105,Juniors,SBD,M,Single-ply
9,Dominik Pahl,1992,Germany,101,282.5,297.5,310,310,-160,160,172.5,172.5,260,-270,270,270,752.5,105,Juniors,SBD,M,Single-ply
1,Ivan Goryachev,1990,Russia,120,350,365,375,375,265,272.5,-275,272.5,295,307.5,312.5,312.5,960,120,Juniors,SBD,M,Single-ply
2,Damir Trokic,1989,Sweden,115.8,340,-355,355,355,245,255,260,260,310,327.5,-332.5,327.5,942.5,120,Juniors,SBD,M,Single-ply
3,Rait Sagor,1990,Estonia,106,-335,342.5,350,350,237.5,245,-250,245,335,-350,-350,335,930,120,Juniors,SBD,M,Single-ply
4,David Lupáč,1991,Czechia,119.8,355,-375,380,380,215,225,-232.5,225,300,322.5,-327.5,322.5,927.5,120,Juniors,SBD,M,Single-ply
5,Endre Wollan,1989,Norway,105.2,310,320,-325,320,-240,240,-245,240,275,290,307.5,307.5,867.5,120,Juniors,SBD,M,Single-ply
6,Ondřej Houžvička,1990,Czechia,115.8,270,285,295,295,180,-190,190,190,280,295,302.5,302.5,787.5,120,Juniors,SBD,M,Single-ply
7,Ziyed Badreddine,1991,Netherlands,120,285,302.5,310,310,185,-190,190,190,280,-292.5,-292.5,280,780,120,Juniors,SBD,M,Single-ply
8,Morten Jensen,1989,Denmark,119.4,275,290,300,300,200,210,215,215,240,250,-267.5,250,765,120,Juniors,SBD,M,Single-ply
9,Marvin Rippe,1990,Germany,106,280,292.5,-297.5,292.5,-177.5,177.5,-195,177.5,260,272.5,282.5,282.5,752.5,120,Juniors,SBD,M,Single-ply
10,Michal Kular,1991,Poland,106.8,280,295,-300,295,185,195,202.5,202.5,240,-255,255,255,752.5,120,Juniors,SBD,M,Single-ply
11,Radosław Soboń,1989,Poland,105.6,260,270,280,280,200,205,-210,205,235,250,257.5,257.5,742.5,120,Juniors,SBD,M,Single-ply
12,Tobias Kokholm,1991,Denmark,107.2,260,-272.5,-287.5,260,175,182.5,-185,182.5,240,255,-267.5,255,697.5,120,Juniors,SBD,M,Single-ply
1,Igor Filippov,1989,Russia,129.4,350,362.5,372.5,372.5,252.5,260,267.5,267.5,307.5,320,325,325,965,120+,Juniors,SBD,M,Single-ply
2,Niklas Zellin,1991,Norway,137.8,360,375,380,380,-245,245,-250,245,310,315,-327.5,315,940,120+,Juniors,SBD,M,Single-ply
3,Kamil Jarota,1991,Poland,146,350,362.5,375,375,230,240,250,250,295,312.5,-317.5,312.5,937.5,120+,Juniors,SBD,M,Single-ply
4,Júlían J.K. Jóhannsson,1993,Iceland,142.8,320,-335,-335,320,220,230,235,235,290,315,327.5,327.5,882.5,120+,Juniors,SBD,M,Single-ply
5,Steve Ringoot,1989,Belgium,124,330,-350,-350,330,220,-250,-250,220,295,302.5,-310,302.5,852.5,120+,Juniors,SBD,M,Single-ply
6,André Sjöholm,1989,Finland,148.4,280,-297.5,-300,280,232.5,-247.5,-252.5,232.5,250,-282.5,-282.5,250,762.5,120+,Juniors,SBD,M,Single-ply
DQ,Aivaras Andriušaitis,1990,Lithuania,126.6,-322.5,322.5,-340,322.5,-230,,,,,,,,,120+,Juniors,SBD,M,Single-ply
