Division,WeightClassKg,Place,Name,Team,BodyweightKg,Best3SquatKg,Best3BenchKg,Best3DeadliftKg,TotalKg,Equipment,Event,Sex,BirthDate
Boys,51.71,1,Juan Gonzales,Gladewater Sabine,50.35,99.79,43.09,104.33,247.21,Single-ply,SBD,M,
Boys,51.71,2,Rj Phillips,Hawkins,51.71,79.38,43.09,61.23,183.7,Single-ply,SBD,M,
Boys,59.87,1,Kashtin Upchurch,Hawkins,59.87,92.99,63.5,102.06,258.55,Single-ply,SBD,M,
Boys,67.13,1,Luis Williams,Harleton,67.13,167.83,117.93,176.9,462.66,Single-ply,SBD,M,
Boys,67.13,2,Nick Paschall,Harleton,67.13,151.95,81.65,156.49,390.09,Single-ply,SBD,M,
Boys,67.13,3,Sam Lewis,Hawkins,65.32,124.74,102.06,142.88,369.68,Single-ply,SBD,M,
Boys,67.13,4,Mason Williamson,Hawkins,67.13,122.47,79.38,136.08,337.93,Single-ply,SBD,M,
Boys,67.13,5,Nathan Heitritter,Harleton,67.13,108.86,68.04,106.59,283.5,Single-ply,SBD,M,
Boys,67.13,DQ,Dawsun Pruitt,Hawkins,67.13,,,,,Single-ply,SBD,M,
Boys,74.84,1,Kile Stripland,Gladewater Sabine,70.4,185.97,124.74,174.63,485.34,Single-ply,SBD,M,
Boys,74.84,2,Blake Blassingame,Harleton,74.84,190.51,115.67,174.63,480.81,Single-ply,SBD,M,
Boys,74.84,3,Matt Morgan #3,Gladewater Sabine,70.13,163.29,117.93,170.1,451.32,Single-ply,SBD,M,
Boys,74.84,4,Korbin Colquitt,Gladewater Sabine,74.12,136.08,92.99,156.49,385.55,Single-ply,SBD,M,
Boys,74.84,5,Brendan Scott,Harleton,74.84,142.88,90.72,149.69,383.29,Single-ply,SBD,M,
Boys,74.84,6,Landon Moses,Gladewater Sabine,73.57,147.42,83.91,145.15,376.48,Single-ply,SBD,M,
Boys,74.84,7,Julian Frazier,Hawkins,72.12,136.08,92.99,136.08,365.14,Single-ply,SBD,M,
Boys,74.84,8,Tayton Benfit,Harleton,74.84,129.27,81.65,149.69,360.61,Single-ply,SBD,M,
Boys,74.84,9,Rowdy Searer,Hawkins,74.84,124.74,63.5,163.29,351.53,Single-ply,SBD,M,
Boys,74.84,10,Brenden Elkins,Hawkins,68.04,108.86,68.04,136.08,312.98,Single-ply,SBD,M,
Boys,74.84,11,Phillip Holland,Hawkins,72.57,90.72,72.57,117.93,281.23,Single-ply,SBD,M,
Boys,74.84,DQ,JB Hill,Gladewater Sabine,74.66,,,,,Single-ply,SBD,M,
Boys,74.84,DQ,Sabastion Lewis,Hawkins,72.12,,,,,Single-ply,SBD,M,
Boys,74.84,DQ,Payton McQueen,Hawkins,74.84,,,,,Single-ply,SBD,M,
Boys,82.1,1,Kaden Richard,Gladewater Sabine,79.65,197.31,124.74,192.78,514.83,Single-ply,SBD,M,
Boys,82.1,2,Tristan Peterson,Gladewater Sabine,79.83,161.03,97.52,165.56,424.11,Single-ply,SBD,M,
Boys,82.1,3,Eric Pantoja,Harleton,82.1,147.42,92.99,176.9,417.3,Single-ply,SBD,M,
Boys,82.1,4,Reed Thornburgh,Gladewater Sabine,81.19,142.88,99.79,161.03,403.7,Single-ply,SBD,M,
Boys,82.1,5,Tony Vincente,Gladewater Sabine,78.38,142.88,97.52,136.08,376.48,Single-ply,SBD,M,
Boys,82.1,6,Luke Ratcliff,Harleton,82.1,133.81,77.11,129.27,340.19,Single-ply,SBD,M,
Boys,82.1,7,Cade Canfield,Harleton,82.1,115.67,61.23,124.74,301.64,Single-ply,SBD,M,
Boys,82.1,8,Hunter Warrick,Hawkins,82.1,131.54,,136.08,267.62,Single-ply,SD,M,
Boys,89.81,1,Daylon Branham,Gladewater Sabine,88,229.06,147.42,219.99,596.47,Single-ply,SBD,M,
Boys,89.81,2,Austin Stephens,Gladewater Sabine,84.82,170.1,102.06,167.83,439.98,Single-ply,SBD,M,
Boys,89.81,3,Carter Bibb,Harleton,89.81,156.49,79.38,181.44,417.3,Single-ply,SBD,M,
Boys,89.81,4,Chance Owens,Gladewater Sabine,89.36,213.19,,183.7,396.89,Single-ply,SD,M,
Boys,89.81,5,Edwin Torres,Hawkins,82.55,136.08,77.11,113.4,326.59,Single-ply,SBD,M,
Boys,99.79,1,Brody Kriegel,Harleton,99.79,213.19,113.4,199.58,526.17,Single-ply,SBD,M,
Boys,99.79,2,Taylor Wilson,Gladewater Sabine,97.34,195.04,140.61,183.7,519.36,Single-ply,SBD,M,
Boys,99.79,3,Caleb Smith,Harleton,99.79,195.04,113.4,174.63,483.08,Single-ply,SBD,M,
Boys,99.79,4,Brenden Miller,Gladewater Sabine,99.79,222.26,,204.12,426.38,Single-ply,SD,M,
Boys,99.79,5,Coleman Tapia,Hawkins,94.8,154.22,106.59,136.08,396.89,Single-ply,SBD,M,
Boys,99.79,6,Braden Adams,Hawkins,92.53,158.76,117.93,,276.69,Single-ply,SB,M,
Boys,109.77,1,Steven Calico,Gladewater Sabine,107.5,161.03,120.2,161.03,442.25,Single-ply,SBD,M,
Boys,109.77,2,Peyton Murray,Harleton,109.77,147.42,74.84,140.61,362.87,Single-ply,SBD,M,
Boys,109.77,DQ,Izaiah McClain,Harleton,109.77,,,,,Single-ply,SBD,M,
Boys,124.74,1,Lane Woods,Harleton,124.74,199.58,99.79,176.9,476.27,Single-ply,SBD,M,
Boys,124.74,2,Dakota Roffman,Hawkins,113.4,142.88,90.72,142.88,376.48,Single-ply,SBD,M,
Boys,124.74,3,Kadarius Robinson,Hawkins,116.57,145.15,74.84,154.22,374.21,Single-ply,SBD,M,
Boys,124.74,DQ,Jayden Willie,Harleton,124.74,,,,,Single-ply,SBD,M,
Boys,139.71,1,John Hester,Hawkins,125.65,215.46,129.27,210.92,555.65,Single-ply,SBD,M,
Boys,139.71,2,Max Ramirez,Harleton,134.72,213.19,124.74,190.51,528.44,Single-ply,SBD,M,
