Division,WeightClassKg,Place,Name,Team,BodyweightKg,Best3SquatKg,Best3BenchKg,Best3DeadliftKg,TotalKg,Equipment,Event,Sex,BirthDate
Boys,51.71,1,Joe Gaytan,Donna,50.8,170.1,99.79,163.29,433.18,Single-ply,SBD,M,
Boys,51.71,2,Jacob Granado,Brownsville St. Joseph Academy,51.53,111.13,52.16,138.35,301.64,Single-ply,SBD,M,
Boys,51.71,3,Thomas Sandoval,Los Fresnos,50.89,120.2,65.77,113.4,299.37,Single-ply,SBD,M,
Boys,51.71,4,Brigido Longoria,Los Fresnos,49.53,108.86,40.82,108.86,258.55,Single-ply,SBD,M,
Boys,55.79,1,Fabian Garcia,Edinburg Idea College Prep,53.8,158.76,111.13,167.83,437.72,Single-ply,SBD,M,
Boys,55.79,2,Israel Ramos,Brownsville Pace,55.79,161.03,88.45,154.22,403.7,Single-ply,SBD,M,
Boys,55.79,3,Isaia Garcia,Edinburg Idea College Prep,55.79,149.69,95.25,154.22,399.16,Single-ply,SBD,M,
Boys,55.79,4,Brandon Minez,Brownsville Porter,54.7,95.25,63.5,140.61,299.37,Single-ply,SBD,M,
Boys,59.87,1,Maxx Padron,Brownsville Pace,59.87,190.51,99.79,197.31,487.61,Single-ply,SBD,M,
Boys,59.87,2,Jonathan Gracia,Brownsville Lopez,58.51,149.69,97.52,167.83,415.04,Single-ply,SBD,M,
Boys,59.87,3,Daniel Agado,La Feria,59.6,133.81,70.31,158.76,362.87,Single-ply,SBD,M,
Boys,59.87,4,Samuel Mendoza,Brownsville Pace,59.87,99.79,79.38,149.69,328.85,Single-ply,SBD,M,
Boys,59.87,DQ,José Castro,Los Fresnos,59.51,179.17,,,,Single-ply,SBD,M,
Boys,67.13,1,Alexis Martinez #3,Brownsville Lopez,65.14,163.29,104.33,204.12,471.74,Single-ply,SBD,M,
Boys,67.13,2,Jose Pallares,Brownsville Pace,67.13,185.97,104.33,176.9,467.2,Single-ply,SBD,M,
Boys,67.13,3,Chris Gomez,Brownsville Porter,67.13,158.76,99.79,192.78,451.32,Single-ply,SBD,M,
Boys,67.13,4,Angel Valdez,Brownsville Lopez,66.77,151.95,88.45,167.83,408.23,Single-ply,SBD,M,
Boys,67.13,5,Noah Vento,La Feria,64.41,129.27,86.18,151.95,367.41,Single-ply,SBD,M,
Boys,67.13,6,Nathan Longoria,La Feria,67.13,136.08,70.31,158.76,365.14,Single-ply,SBD,M,
Boys,67.13,7,Axel Salazar,Brownsville Pace,63.96,102.06,74.84,138.35,315.25,Single-ply,SBD,M,
Boys,67.13,8,Alberto Guajardo,Brownsville Pace,61.23,86.18,61.23,95.25,242.67,Single-ply,SBD,M,
Boys,67.13,DQ,Nelson Garcia,Brownsville Pace,67.04,183.7,111.13,,,Single-ply,SBD,M,
Boys,74.84,1,Christopher Espinoza,Brownsville Pace,72.57,233.6,111.13,201.85,546.58,Single-ply,SBD,M,
Boys,74.84,2,Josue Ceron,Los Fresnos,74.03,174.63,113.4,190.51,478.54,Single-ply,SBD,M,
Boys,74.84,3,Eric Mendez,Brownsville Porter,74.03,145.15,102.06,188.24,435.45,Single-ply,SBD,M,
Boys,74.84,4,Miguel Herrera,Brownsville Pace,73.03,165.56,102.06,149.69,417.3,Single-ply,SBD,M,
Boys,74.84,5,Ivan Guzman,Brownsville Porter,73.39,120.2,83.91,149.69,353.8,Single-ply,SBD,M,
Boys,74.84,6,Eduardo Ibarra,Brownsville Pace,74.84,122.47,83.91,124.74,331.12,Single-ply,SBD,M,
Boys,74.84,DQ,Joel Hernandez #1,Brownsville Pace,73.94,215.46,,,,Single-ply,SBD,M,
Boys,82.1,1,Marco Martínez,Brownsville Lopez,79.92,206.38,133.81,224.53,564.72,Single-ply,SBD,M,
Boys,82.1,2,Ricardo Macias,La Feria,80.29,176.9,127.01,208.65,512.56,Single-ply,SBD,M,
Boys,82.1,3,David Delvalle,Brownsville Pace,80.29,197.31,106.59,206.38,510.29,Single-ply,SBD,M,
Boys,82.1,4,Ever Gaona,Brownsville Porter,80.1,163.29,83.91,170.1,417.3,Single-ply,SBD,M,
Boys,82.1,5,Joel Ramirez,Donna,77.11,145.15,97.52,154.22,396.89,Single-ply,SBD,M,
Boys,82.1,6,Francisco Garza,Brownsville Porter,77.02,99.79,79.38,122.47,301.64,Single-ply,SBD,M,
Boys,82.1,7,Saul Zamora,Donna,79.29,90.72,45.36,77.11,213.19,Single-ply,SBD,M,
Boys,82.1,8,Omar Nava,Brownsville Pace,80.97,68.04,43.09,90.72,201.85,Single-ply,SBD,M,
Boys,82.1,DQ,Isais Lucio,Brownsville Lopez,77.47,131.54,,,,Single-ply,SBD,M,
Boys,89.81,1,Hector Barron,Brownsville Hanna,87.54,226.8,142.88,183.7,553.38,Single-ply,SBD,M,
Boys,89.81,2,Vicente Herrera,Brownsville Hanna,82.83,206.38,127.01,192.78,526.17,Single-ply,SBD,M,
Boys,89.81,3,Alan Torres,Los Fresnos,87.63,206.38,113.4,204.12,523.9,Single-ply,SBD,M,
Boys,89.81,4,Travis Menchaca,La Feria,87.27,176.9,102.06,208.65,487.61,Single-ply,SBD,M,
Boys,89.81,5,Santos Avalos,Brownsville Hanna,89.09,201.85,108.86,165.56,476.27,Single-ply,SBD,M,
Boys,89.81,6,Oscar Lozano,Brownsville Pace,89.54,158.76,113.4,190.51,462.66,Single-ply,SBD,M,
Boys,89.81,7,Gualberto Zarrate,Brownsville Pace,88.09,158.76,111.13,183.7,453.59,Single-ply,SBD,M,
Boys,89.81,8,Brandon Robles,Brownsville Hanna,88.63,183.7,104.33,163.29,451.32,Single-ply,SBD,M,
Boys,89.81,9,Mario Ramirez,Brownsville Lopez,88.54,161.03,92.99,188.24,442.25,Single-ply,SBD,M,
Boys,89.81,10,Shama Morato,Brownsville Porter,85,156.49,102.06,163.29,421.84,Single-ply,SBD,M,
Boys,89.81,11,Chris Floriano,Brownsville Porter,84.37,158.76,97.52,142.88,399.16,Single-ply,SBD,M,
Boys,89.81,12,Jesse Osorio,Brownsville Porter,89.54,138.35,102.06,158.76,399.16,Single-ply,SBD,M,
Boys,89.81,13,Christopher Cruz,Brownsville Porter,89.09,131.54,88.45,145.15,365.14,Single-ply,SBD,M,
Boys,89.81,DQ,Rolando Gonzalez,Brownsville Hanna,89.81,226.8,,,,Single-ply,SBD,M,
Boys,89.81,DQ,Joseph Arredondo,Brownsville Hanna,88.63,,,,,Single-ply,SBD,M,
Boys,99.79,1,Alonso Requena,Los Fresnos,96.98,251.74,174.63,240.4,666.78,Single-ply,SBD,M,
Boys,99.79,2,Kenneth Herrera,Brownsville Hanna,96.16,226.8,113.4,204.12,544.31,Single-ply,SBD,M,
Boys,99.79,3,Richard Gonzalez,Brownsville Lopez,91.63,188.24,124.74,192.78,505.76,Single-ply,SBD,M,
Boys,99.79,4,Angel Garcia #3,La Feria,92.8,208.65,111.13,185.97,505.76,Single-ply,SBD,M,
Boys,99.79,5,Ricardo Alanis,Brownsville St. Joseph Academy,97.34,170.1,124.74,156.49,451.32,Single-ply,SBD,M,
Boys,99.79,6,Carlos Delgado,Brownsville Lopez,99.34,156.49,83.91,190.51,430.91,Single-ply,SBD,M,
Boys,99.79,7,Justice Perez,La Feria,94.35,170.1,74.84,163.29,408.23,Single-ply,SBD,M,
Boys,99.79,8,Vincent Guitron,Brownsville Porter,91.99,102.06,49.9,122.47,274.42,Single-ply,SBD,M,
Boys,99.79,DQ,Aric Singleterry,Donna,94.8,,,,,Single-ply,SBD,M,
Boys,109.77,1,Gabriel Salinas,Donna,107.05,285.76,183.7,249.48,718.94,Single-ply,SBD,M,
Boys,109.77,2,Antonio Banda,Donna,107.5,272.16,167.83,229.06,669.05,Single-ply,SBD,M,
Boys,109.77,3,Nick Rojas,Donna,107.95,240.4,158.76,204.12,603.28,Single-ply,SBD,M,
Boys,109.77,4,Antonio Marroquin,La Feria,104.33,244.94,138.35,217.72,601.01,Single-ply,SBD,M,
Boys,109.77,5,Ángel Sánchez #2,Brownsville Lopez,109.77,206.38,102.06,192.78,501.22,Single-ply,SBD,M,
Boys,109.77,6,Francisco Lara,Brownsville Hanna,102.78,188.24,108.86,188.24,485.34,Single-ply,SBD,M,
Boys,109.77,7,Aidan Villanueva,Brownsville Hanna,106.14,183.7,61.23,165.56,410.5,Single-ply,SBD,M,
Boys,109.77,8,Octavio Mata,Brownsville Lopez,104.33,147.42,83.91,158.76,390.09,Single-ply,SBD,M,
Boys,109.77,NS,Gilbert Camacho,La Feria,,,,,,Single-ply,SBD,M,
Boys,109.77,DQ,Miguel Cortez,Brownsville St. Joseph Academy,102.06,156.49,102.06,,,Single-ply,SBD,M,
Boys,124.74,1,Carlos Torres,Donna,117.93,226.8,113.4,188.24,528.44,Single-ply,SBD,M,
Boys,124.74+,1,Carlos Pineda,Donna,161.48,317.51,149.69,240.4,707.6,Single-ply,SBD,M,
Boys,124.74+,2,Ryan Garcia,Edinburg Idea College Prep,129,278.96,142.88,251.74,673.58,Single-ply,SBD,M,
Boys,124.74+,3,Triston Rosales,La Feria,132,281.23,151.95,204.12,637.3,Single-ply,SBD,M,
Boys,124.74+,4,Jose Lartigue,Brownsville Hanna,130.09,165.56,61.23,192.78,419.57,Single-ply,SBD,M,
