Name,WeightClassKg,Age,Sex,BodyweightKg,Squat1Kg,Squat2Kg,Squat3Kg,Best3SquatKg,Bench1Kg,Bench2Kg,Bench3Kg,Best3BenchKg,Deadlift1Kg,Deadlift2Kg,Deadlift3Kg,Best3DeadliftKg,TotalKg,Event,Equipment,Place,Division
Mandy Cleveland,56,17,F,53,87.5,90,102.5,102.5,-50,50,-52.5,50,95,102.5,107.5,107.5,260,SBD,Single-ply,1,F-T
Emily Phipps,56,14,F,54.9,52.5,62.5,67.5,67.5,30,35,-40,35,65,80,85,85,187.5,SBD,Single-ply,2,F-T
Dava Thomas,56,48,F,55.3,50,57.5,62.5,62.5,30,-35,-35,30,82.5,92.5,-100,92.5,185,SBD,Single-ply,1,F-M1
Kathy Schultz,60,31,F,60,,,,,25,35,42.5,42.5,,,,,42.5,B,Single-ply,1,F-O
Maureen Post,67.5,49,F,66.5,85,-95,95,95,-97.5,-102.5,102.5,102.5,122.5,-135,,122.5,320,SBD,Single-ply,1,F-M1
Sarah Farrance,75,34,F,72.5,110,120,135,135,57.5,-62.5,-62.5,57.5,102.5,120,137.5,137.5,330,SBD,Single-ply,1,F-O
Mycah Sutton,75,16,F,71.5,67.5,77.5,87.5,87.5,30,40,-45,40,77.5,92.5,95,95,222.5,SBD,Single-ply,1,F-T
Sarah Stuart,82.5,23,F,81.8,52.5,60,-77.5,60,40,45,-47.5,45,60,80,92.5,92.5,197.5,SBD,Single-ply,1,F-O
Mathew Stagg,52,14,M,51.5,60,70,-77.5,70,47.5,-52.5,-52.5,47.5,100,110,-112.5,110,227.5,SBD,Single-ply,1,M-O
Mike Stagg,67.5,38,M,62.2,112.5,130,-137.5,130,105,-112.5,112.5,112.5,165,182.5,-190,182.5,425,SBD,Single-ply,1,M-O
Steven Thompson,67.5,18,M,65.1,112.5,137.5,-155,137.5,87.5,100,-110,100,125,140,160,160,397.5,SBD,Single-ply,1,M-T
Marvin Huber,67.5,53,M,66.2,,,,,95,105,112.5,112.5,,,,,112.5,B,Single-ply,1,M-M2
Mike Lawson,67.5,65,M,67.3,,,,,122.5,-135,-135,122.5,,,,,122.5,B,Single-ply,1,M-O
Austin Ulrich,75,19,M,72.6,155,-172.5,-172.5,155,95,105,115,115,-177.5,177.5,-210,177.5,447.5,SBD,Single-ply,1,M-T
Ben Cuvar,75,18,M,72.5,110,122.5,-130,122.5,92.5,102.5,105,105,150,172.5,177.5,177.5,405,SBD,Single-ply,2,M-T
Nathan Morris,82.5,18,M,81.7,155,175,182.5,182.5,107.5,115,117.5,117.5,155,167.5,172.5,172.5,472.5,SBD,Single-ply,1,M-T
Jerry King,82.5,,M,82.1,107.5,-117.5,122.5,122.5,107.5,-117.5,-117.5,107.5,145,162.5,182.5,182.5,412.5,SBD,Single-ply,1,M-M1
Josh Scott,82.5,17,M,82.5,110,120,125,125,60,70,-82.5,70,145,160,172.5,172.5,367.5,SBD,Single-ply,2,M-T
Bob Zirkelbach,82.5,52,M,78.4,,,,,92.5,102.5,110,110,,,,,110,B,Single-ply,1,M-M2
Tyson Green,90,23,M,89.7,265,285,-290,285,190,210,215,215,265,280,297.5,297.5,797.5,SBD,Single-ply,1,M-O
Rick Fowler,90,36,M,90,-247.5,-247.5,247.5,247.5,175,-182.5,-182.5,175,240,257.5,-270,257.5,680,SBD,Single-ply,2,M-O
Andy Odenwald,90,21,M,86.9,227.5,242.5,-250,242.5,177.5,187.5,192.5,192.5,240,-262.5,-280,240,675,SBD,Single-ply,3,M-O
Duane Winkler,90,50,M,89,242.5,-257.5,-257.5,242.5,167.5,175,-185,175,230,245,-260,245,662.5,SBD,Single-ply,4,M-O
Fred Rice,90,,M,89.6,207.5,,,207.5,107.5,115,,115,227.5,252.5,322.5,322.5,645,SBD,Single-ply,1,M-M2
Ryan Frey,90,30,M,88.1,130,137.5,145,145,87.5,102.5,105,105,137.5,165,172.5,172.5,422.5,SBD,Single-ply,1,M-O
David Morris #4,90,47,M,89.6,125,-142.5,-142.5,125,107.5,-115,115,115,155,167.5,-175,167.5,407.5,SBD,Single-ply,1,M-M1
Drew Darwin,90,16,M,88.6,82.5,97.5,115,115,62.5,70,-80,70,135,147.5,160,160,345,SBD,Single-ply,1,M-T
Micheal Pratt,90,33,M,89.3,-260,-260,-260,,147.5,-160,-160,147.5,232.5,-247.5,-247.5,232.5,,SBD,Single-ply,DQ,M-O
William Lee,100,25,M,97.9,237.5,260,275,275,185,192.5,197.5,197.5,205,227.5,242.5,242.5,715,SBD,Single-ply,1,M-O
Joshua Childers,100,25,M,100,160,167.5,180,180,125,137.5,150,150,195,227.5,-237.5,227.5,557.5,SBD,Single-ply,1,M-O
Andy Best,100,31,M,97.1,132.5,-140,-140,132.5,100,-110,-110,100,150,157.5,-167.5,157.5,390,SBD,Single-ply,2,M-O
Dana Rosenzweig,100,49,M,91.6,25,,,25,187.5,195,200,200,225,,,225,450,SBD,Single-ply,1,M-M1
Terry Stanley,100,37,M,100,,,,,-195,195,-200,195,,,,,195,B,Single-ply,1,M-O
Ken Paxton,110,47,M,100.4,205,-227.5,-237.5,205,152.5,167.5,-182.5,167.5,205,227.5,-235,227.5,600,SBD,Single-ply,1,M-M1
Brady Stewart,110,24,M,108.8,,,,,225,-232.5,235,235,,,,,235,B,Single-ply,1,M-O
Bill McDonough,125,39,M,124.2,272.5,-285,285,285,217.5,-237.5,-237.5,217.5,272.5,-285,-285,272.5,775,SBD,Single-ply,1,M-O
Shaun Bales,125,27,M,121.9,,,,,-207.5,207.5,220,220,,,,,220,B,Single-ply,1,M-O
Stephen Schroeder,125,27,M,124.5,240,-272.5,-272.5,240,-160,-160,-160,,230,-245,-245,230,,SBD,Single-ply,DQ,M-O
Randy Pirtle,125+,43,M,130.4,237.5,255,-272.5,255,177.5,-190,190,190,240,257.5,272.5,272.5,717.5,SBD,Single-ply,1,M-M1
Shane Hopkins,125+,27,M,128.7,190,-202.5,215,215,190,200,215,215,235,250,-262.5,250,680,SBD,Single-ply,1,M-O
